0	103
0	121
0	137
0	139
0	146
0	176
0	179
0	185
0	198
1	109
1	137
1	145
1	176
1	186
1	188
1	191
1	196
2	101
2	114
2	126
2	146
2	149
2	150
2	152
2	153
2	165
2	171
2	196
3	102
3	113
3	114
3	119
3	125
3	134
3	138
3	142
3	148
3	154
3	172
3	179
4	101
4	104
4	106
4	110
4	111
4	119
4	121
4	122
4	145
4	151
4	152
4	153
4	158
4	160
4	172
4	185
4	191
5	125
5	129
5	149
5	159
5	162
5	168
5	170
5	173
5	175
5	176
5	190
5	191
6	114
6	116
6	117
6	140
6	171
6	185
6	189
6	194
6	195
6	199
7	108
7	114
7	126
7	134
7	164
7	178
7	187
7	188
7	193
8	118
8	123
8	139
8	146
8	149
8	157
8	169
8	176
9	100
9	107
9	113
9	125
9	131
9	141
9	156
9	161
9	173
9	187
9	192
10	112
10	122
10	156
10	175
10	176
10	178
10	181
10	194
11	103
11	130
11	141
11	146
11	161
11	174
11	190
11	191
11	192
11	199
12	109
12	111
12	141
12	161
12	165
12	166
12	175
12	180
12	181
12	194
13	120
13	122
13	137
13	140
13	156
13	157
13	159
13	177
13	180
13	187
14	114
14	130
14	150
14	151
14	156
14	165
14	185
14	186
15	100
15	107
15	109
15	110
15	137
15	148
15	151
15	169
15	188
16	101
16	112
16	145
16	147
16	155
16	165
16	199
17	106
17	111
17	112
17	132
17	161
17	167
17	189
17	197
18	101
18	103
18	105
18	142
18	164
18	187
18	192
18	198
18	199
19	104
19	109
19	158
19	174
19	182
19	193
20	108
20	116
20	120
20	122
20	123
20	124
20	127
20	138
20	155
20	170
21	130
21	140
21	143
21	148
21	167
21	174
21	175
22	106
22	109
22	111
22	118
22	124
22	143
22	147
22	150
22	151
22	159
22	166
22	169
22	179
22	188
23	104
23	106
23	109
23	114
23	120
23	137
23	144
23	146
23	172
23	185
23	186
23	190
23	194
23	199
24	100
24	103
24	118
24	124
24	127
24	133
24	154
24	157
24	193
25	105
25	106
25	107
25	115
25	120
25	124
25	128
25	144
25	179
25	199
26	118
26	123
26	146
26	173
26	174
26	185
26	192
26	197
27	115
27	141
27	152
27	155
27	169
27	171
27	178
27	190
27	191
27	195
27	199
28	107
28	118
28	132
28	143
28	158
28	184
28	185
28	190
28	192
28	194
28	198
29	104
29	105
29	119
29	123
29	129
29	134
29	138
29	151
29	166
30	108
30	113
30	122
30	139
30	155
30	164
30	170
30	177
31	101
31	109
31	120
31	129
31	140
31	142
31	149
31	153
31	157
31	170
31	188
31	189
31	194
31	196
32	105
32	111
32	125
32	140
32	142
32	156
32	158
32	196
33	100
33	105
33	109
33	119
33	123
33	125
33	148
33	154
33	159
33	175
33	191
33	198
34	108
34	110
34	114
34	124
34	131
34	134
34	150
34	160
34	167
34	171
34	176
34	177
34	179
34	190
34	195
35	107
35	121
35	125
35	127
35	146
35	157
35	158
35	173
35	181
35	184
36	103
36	108
36	118
36	119
36	125
36	132
36	133
36	134
36	138
36	169
36	176
36	177
36	179
36	181
37	111
37	127
37	129
37	131
37	146
37	148
37	159
37	178
37	183
37	187
37	189
38	111
38	115
38	133
38	135
38	165
38	168
38	183
39	107
39	118
39	132
39	166
39	176
39	195
40	111
40	114
40	125
40	162
40	180
40	184
40	185
40	198
41	111
41	125
41	127
41	129
41	132
41	149
41	159
41	160
41	163
41	167
41	173
41	176
41	186
41	198
42	101
42	120
42	131
42	142
42	146
42	165
42	179
42	184
42	188
43	108
43	139
43	142
43	145
43	148
43	152
43	168
43	174
43	175
43	180
43	187
43	199
44	110
44	128
44	131
44	139
44	155
44	167
44	168
44	170
44	195
45	101
45	105
45	107
45	118
45	121
45	144
45	187
45	192
45	195
46	107
46	108
46	114
46	118
46	120
46	141
46	152
46	153
46	155
46	173
46	193
47	102
47	105
47	113
47	162
47	180
47	182
47	192
48	104
48	105
48	139
48	158
48	179
49	116
49	155
49	156
49	161
49	168
49	184
50	118
50	119
50	120
50	152
50	165
50	171
50	172
50	178
50	185
50	192
50	195
50	198
50	199
51	113
51	114
51	123
51	144
51	148
51	154
51	161
51	174
51	185
52	106
52	140
52	151
52	160
52	177
52	180
52	199
53	121
53	144
53	156
53	167
53	171
53	180
53	187
54	110
54	113
54	128
54	129
54	140
54	148
54	153
54	168
54	170
54	196
55	103
55	106
55	121
55	142
55	178
55	180
55	182
55	195
55	196
55	199
56	111
56	112
56	123
56	125
56	132
56	133
56	134
56	184
56	188
56	189
56	191
56	197
57	102
57	107
57	119
57	124
57	154
57	187
58	104
58	110
58	131
58	167
58	183
58	184
59	114
59	123
59	139
59	144
59	146
59	152
59	154
59	159
59	166
59	173
59	182
59	190
60	133
60	135
60	160
60	161
60	164
60	177
60	185
60	190
60	191
61	102
61	116
61	119
61	125
61	127
61	130
61	136
61	142
61	144
61	160
61	163
61	176
61	177
61	181
61	183
61	191
61	196
62	109
62	110
62	111
62	117
62	121
62	128
62	137
62	182
63	149
63	157
63	165
63	176
63	184
63	186
63	193
63	199
64	101
64	103
64	105
64	106
64	108
64	112
64	114
64	115
64	117
64	120
64	121
64	123
64	127
64	138
64	144
64	147
64	157
64	163
64	170
64	174
64	179
64	180
64	189
64	191
64	192
64	198
65	100
65	106
65	107
65	112
65	114
65	141
65	153
65	163
65	184
65	191
66	103
66	106
66	120
66	125
66	138
66	148
66	156
66	163
66	165
66	169
66	176
66	177
66	184
67	108
67	117
67	121
67	142
67	168
67	169
67	184
67	196
67	199
68	104
68	111
68	122
68	132
68	140
68	152
68	158
68	159
68	176
68	179
68	192
69	104
69	127
69	130
69	132
69	135
69	137
69	142
69	147
69	176
69	181
70	105
70	114
70	118
70	142
70	145
70	150
70	164
70	173
70	181
70	187
70	198
71	107
71	113
71	118
71	125
71	126
71	150
71	160
71	169
71	193
71	194
71	199
72	100
72	116
72	151
72	168
72	175
72	185
72	190
72	192
73	102
73	105
73	112
73	118
73	127
73	138
73	151
73	158
73	162
73	170
73	174
73	196
73	197
74	103
74	117
74	118
74	128
74	140
74	146
74	157
74	160
74	164
74	165
74	166
74	169
74	170
74	172
74	173
74	182
75	108
75	115
75	159
75	173
75	174
75	188
75	190
76	100
76	110
76	117
76	122
76	123
76	139
76	140
76	157
76	161
76	166
76	176
76	197
77	108
77	117
77	120
77	128
77	133
77	136
77	139
77	140
77	145
77	161
77	164
77	171
77	174
77	181
77	183
77	190
77	192
78	102
78	103
78	115
78	124
78	142
78	168
78	182
79	107
79	108
79	113
79	138
79	165
79	175
80	101
80	104
80	105
80	106
80	124
80	167
80	186
80	191
81	103
81	108
81	122
81	127
81	130
81	151
81	172
81	177
81	180
81	184
82	101
82	123
82	127
82	131
82	172
82	173
82	177
83	104
83	111
83	133
83	134
83	140
83	145
83	147
83	156
83	165
83	166
83	176
83	179
83	181
83	184
84	105
84	108
84	120
84	128
84	135
84	139
84	148
84	153
84	173
84	185
84	187
85	100
85	108
85	114
85	119
85	124
85	126
85	151
85	168
85	174
85	176
85	191
85	194
85	196
86	104
86	113
86	121
86	131
86	132
86	139
86	151
86	170
86	179
86	181
86	195
87	110
87	114
87	125
87	131
87	149
87	197
88	113
88	133
88	134
88	144
88	151
88	160
88	164
88	176
88	182
88	199
89	112
89	140
89	143
89	144
89	148
89	158
89	174
89	177
89	188
89	194
90	114
90	116
90	118
90	168
90	185
90	190
90	198
91	116
91	130
91	131
91	135
91	190
91	199
92	111
92	115
92	138
92	149
92	150
92	157
92	176
93	105
93	106
93	108
93	118
93	121
93	139
93	152
93	166
93	167
93	178
93	192
94	100
94	106
94	118
94	128
94	131
94	134
94	145
94	154
94	176
94	186
94	187
94	191
95	107
95	112
95	122
95	133
95	138
95	139
95	189
95	192
96	127
96	137
96	152
96	158
96	176
97	124
97	147
97	150
97	161
97	168
97	169
97	171
97	179
97	190
97	194
97	198
98	116
98	118
98	121
98	127
98	137
98	163
98	165
98	174
98	179
98	193
99	100
99	101
99	114
99	118
99	141
99	145
99	147
99	170
99	180
99	188
99	192
99	194
