0.9422572178477691
0.8805460750853242
0.8321247280638143
0.7920220082530949
0.755834829443447
0.7243735763097949
0.6949180327868852
0.6670515225862318
0.6421663442940039
0.6194195127637254
0.5993603411513859
0.5795320487613056
0.5612803209921575
0.5436167501911153
0.5255260023818975
0.5071934401789042
0.490236021354313
0.4739707835325365
0.45861678004535145
0.44411870288380995
0.43082621082621086
0.41768574379042345
0.40493762993762994
0.39285180200388814
0.38134457000574606
0.3706416102436553
0.3602732434350603
0.34987603659057875
0.3400866515370332
0.3311504212754063
0.32256566985183177
0.3143103707038871
0.30629777939570435
0.29849796783884075
0.2910027472527472
0.2839481422079658
0.2771307742355238
0.2707303157093952
0.26449599950573044
0.25854951941908466
0.25292629845303216
0.24745908699397068
0.2423001402524544
0.2373964561961709
0.23257061616459673
0.22782982967220433
0.22325832305795312
0.21888444410898933
0.2146607182470237
0.210582266247886
