0.916010498687664
0.8458475540386803
0.8023930384336475
0.7631361760660248
0.7293536804308798
0.6998861047835991
0.6722950819672131
0.6462693029297157
0.6229529335912314
0.6012355752418697
0.5825159914712154
0.5636059771922926
0.5461426226518329
0.529007050029729
0.5114728066693133
0.4938501677226985
0.4773812868783366
0.4614873837981408
0.4465860418241371
0.4325116668661003
0.41937321937321936
0.40648948312408284
0.39391891891891895
0.38203479387867
0.3708580731660601
0.36037031919303575
0.35029276082327887
0.34017269385312476
0.3306375077367444
0.3219662181048596
0.3135904677163527
0.3055305417979889
0.29774299235529667
0.2901572716027566
0.28286401098901104
0.27602913659449346
0.2693884189980481
0.26315455813363764
0.257112847919434
0.25134833830486003
0.24589730015881417
0.24059718633362048
0.23559607293127627
0.23084096768884743
0.22615949998658758
0.22155735768837104
0.21711878339498558
0.2128462525473621
0.20872051465332375
0.20475960376902635
